{
    "name": "Controls",
    "maps": [
        {
            "name": "PlayerControls",
            "id": "ca2aa3d0-43f8-42e6-88cc-9a2c9d673f5f",
            "actions": [
                {
                    "name": "ZMovement",
                    "type": "Value",
                    "id": "7f804717-de52-4804-90cd-020e974b411c",
                    "expectedControlType": "Button",
                    "processors": "",
                    "interactions": "",
                    "initialStateCheck": true
                },
                {
                    "name": "XMovement",
                    "type": "Value",
                    "id": "399d0a8f-1133-4258-b807-9caaaaecb775",
                    "expectedControlType": "Button",
                    "processors": "",
                    "interactions": "",
                    "initialStateCheck": true
                },
                {
                    "name": "SplitScreen",
                    "type": "Button",
                    "id": "095af801-0b66-4d0b-8538-858a30fa387e",
                    "expectedControlType": "Button",
                    "processors": "",
                    "interactions": "",
                    "initialStateCheck": true
                },
                {
                    "name": "Interact",
                    "type": "Button",
                    "id": "cb762c2b-0f08-4275-8edc-ee0fa9d2741f",
                    "expectedControlType": "Button",
                    "processors": "",
                    "interactions": "",
                    "initialStateCheck": false
                },
                {
                    "name": "MouseMovement",
                    "type": "Value",
                    "id": "f5b4f4d3-a65a-43e7-9128-7fe21675064d",
                    "expectedControlType": "Button",
                    "processors": "",
                    "interactions": "",
                    "initialStateCheck": true
                },
                {
                    "name": "MouseYMovement",
                    "type": "Value",
                    "id": "0ac75283-deab-4e97-9bbf-9a4f11925d97",
                    "expectedControlType": "Axis",
                    "processors": "",
                    "interactions": "",
                    "initialStateCheck": true
                }
            ],
            "bindings": [
                {
                    "name": "Keyboard",
                    "id": "98033b82-6d21-4bf6-a5c7-144380b21934",
                    "path": "1DAxis",
                    "interactions": "",
                    "processors": "",
                    "groups": "",
                    "action": "ZMovement",
                    "isComposite": true,
                    "isPartOfComposite": false
                },
                {
                    "name": "negative",
                    "id": "60dff000-0b7b-492b-a217-c1fcaabad4c2",
                    "path": "<Keyboard>/s",
                    "interactions": "",
                    "processors": "",
                    "groups": "",
                    "action": "ZMovement",
                    "isComposite": false,
                    "isPartOfComposite": true
                },
                {
                    "name": "positive",
                    "id": "387c8f9b-5dcd-4dff-bdec-13eaed1a0c8d",
                    "path": "<Keyboard>/w",
                    "interactions": "",
                    "processors": "",
                    "groups": "",
                    "action": "ZMovement",
                    "isComposite": false,
                    "isPartOfComposite": true
                },
                {
                    "name": "Keyboard",
                    "id": "a2947178-0e1c-4cad-8d1a-8c89dff421c7",
                    "path": "1DAxis",
                    "interactions": "",
                    "processors": "",
                    "groups": "",
                    "action": "XMovement",
                    "isComposite": true,
                    "isPartOfComposite": false
                },
                {
                    "name": "negative",
                    "id": "9fcb814a-9bbc-48b6-885f-d8819809c0a2",
                    "path": "<Keyboard>/a",
                    "interactions": "",
                    "processors": "",
                    "groups": "",
                    "action": "XMovement",
                    "isComposite": false,
                    "isPartOfComposite": true
                },
                {
                    "name": "positive",
                    "id": "9ef2f7a0-9b43-4e22-88ed-7ca2c4acce09",
                    "path": "<Keyboard>/d",
                    "interactions": "",
                    "processors": "",
                    "groups": "",
                    "action": "XMovement",
                    "isComposite": false,
                    "isPartOfComposite": true
                },
                {
                    "name": "",
                    "id": "3df25795-ae8d-4e2f-8af9-0640076b6fa7",
                    "path": "<Keyboard>/e",
                    "interactions": "",
                    "processors": "",
                    "groups": "",
                    "action": "Interact",
                    "isComposite": false,
                    "isPartOfComposite": false
                },
                {
                    "name": "Mouse",
                    "id": "0dbcab90-8306-4561-8c47-505c3542c733",
                    "path": "1DAxis",
                    "interactions": "",
                    "processors": "",
                    "groups": "",
                    "action": "MouseMovement",
                    "isComposite": true,
                    "isPartOfComposite": false
                },
                {
                    "name": "negative",
                    "id": "7b79bdfe-4eae-44f3-8bfb-2d60f183f2b2",
                    "path": "<Mouse>/delta/left",
                    "interactions": "",
                    "processors": "",
                    "groups": "",
                    "action": "MouseMovement",
                    "isComposite": false,
                    "isPartOfComposite": true
                },
                {
                    "name": "positive",
                    "id": "35fa6de2-2693-41a3-9921-3b7fe1596d25",
                    "path": "<Mouse>/delta/right",
                    "interactions": "",
                    "processors": "",
                    "groups": "",
                    "action": "MouseMovement",
                    "isComposite": false,
                    "isPartOfComposite": true
                },
                {
                    "name": "1D Axis",
                    "id": "17de8bbc-21e7-494b-9893-a53a53485622",
                    "path": "1DAxis",
                    "interactions": "",
                    "processors": "",
                    "groups": "",
                    "action": "MouseYMovement",
                    "isComposite": true,
                    "isPartOfComposite": false
                },
                {
                    "name": "positive",
                    "id": "29ecf585-ad95-4df3-9cb9-79db1f92725d",
                    "path": "<Mouse>/delta/down",
                    "interactions": "",
                    "processors": "",
                    "groups": "",
                    "action": "MouseYMovement",
                    "isComposite": false,
                    "isPartOfComposite": true
                },
                {
                    "name": "negative",
                    "id": "e9804eec-9376-4097-a844-cb7498fa068b",
                    "path": "<Mouse>/delta/up",
                    "interactions": "",
                    "processors": "",
                    "groups": "",
                    "action": "MouseYMovement",
                    "isComposite": false,
                    "isPartOfComposite": true
                },
                {
                    "name": "",
                    "id": "d7355d3d-89f8-4248-a665-e5f872a754a0",
                    "path": "<Keyboard>/q",
                    "interactions": "",
                    "processors": "",
                    "groups": "",
                    "action": "SplitScreen",
                    "isComposite": false,
                    "isPartOfComposite": false
                }
            ]
        }
    ],
    "controlSchemes": []
}